SpringRest Security
------------------------------------------------------------
https://www.youtube.com/watch?v=fItgjSzpnUM
https://github.com/JoseMarin/P09_CRUD_H2_ER_Security
https://github.com/JoseMarin/P10_CRUD_H2_ER_JWT
https://gitlab.com/JoseMarin__/p12_crud_h_er_jwt_register
------------------------------------------------------------