db.createCollection("Libros")
db.Libros.insert( // colección
  { // documento
    ASIN:"4011200296908",
    titulo: "Elmongo_verso",
    fecha_de_lanzamiento: "7/7/2077",
    autor: "Mongo Robert Elison",
    categoria: "Terror",
    editorial: "DB_Books",
    idioma: "spanish",
    paginas: "10",
    descripcion: "Las aventuras de David Balfour",
    portada: "[Hola mundo]"
  }
)