[{
  "_id": "F_1",
  "nombre": "Proveedor1"
},{
  "_id": "F_2",
  "nombre": "Proveedor2"
},{
  "_id": "F_3",
  "nombre": "Proveedor3"
},{
  "_id": "F_4",
  "nombre": "Proveedor4"
},{
  "_id": "F_5",
  "nombre": "Proveedor5"
}]