[{
  "_id": "P_1",
  "nombre": "Proyecto1",
  "horas": 300
},{
  "_id": "P_2",
  "nombre": "Proyecto2",
  "horas": 50
},{
  "_id": "P_3",
  "nombre": "Proyecto3",
  "horas": 200
},{
  "_id": "P_4",
  "nombre": "Proyecto4",
  "horas": 100
},{
  "_id": "P_5",
  "nombre": "Proyecto5",
  "horas": 500
}]